…
``` r
cosmic_fusion_preds= left_join(cosmic_fusions, 
                                unfiltered_preds %>% select(proxy_fusion_name, prog, num_reads),
                                by='proxy_fusion_name') %>%
    # select only top-supported breakpoint entry, just in case.
    group_by(sample, proxy_fusion_name, prog) %>% 
        arrange(desc(num_reads)) %>% filter(row_number() == 1) %>% ungroup()

cosmic_fusion_preds
```

    ## # A tibble: 48 × 4
    ##    sample proxy_fusion_name  prog                   num_reads
    ##    <chr>  <chr>              <chr>                      <int>
    ##  1 KIJK   KIJK|ALK--NPM1     pbfusion_v0.3.1              463
    ##  2 KIJK   KIJK|ALK--NPM1     ctat-LR-fusion.v0.13.0       462
    ##  3 KIJK   KIJK|ALK--NPM1     fusionseeker                 459
    ##  4 KIJK   KIJK|ALK--NPM1     LongGF                       458
    ##  5 KIJK   KIJK|ALK--NPM1     pbfusion_v0.4.0              453
    ##  6 KIJK   KIJK|ALK--NPM1     JAFFAL                       358
    ##  7 RT112  RT112|FGFR3--TACC3 pbfusion_v0.4.0              345
    ##  8 RT112  RT112|FGFR3--TACC3 fusionseeker                 344
    ##  9 RT112  RT112|FGFR3--TACC3 ctat-LR-fusion.v0.13.0       343
    ## 10 RT112  RT112|FGFR3--TACC3 LongGF                       341
    ## # ℹ 38 more rows
…
