…
``` r
both_preds %>% filter(type.arriba != type.starF)
```

    ## [1] proxy_fusion_name.starF  type.starF               sample.starF            
    ## [4] FusionName.starF         lex_ordered_fusion_name  proxy_fusion_name.arriba
    ## [7] type.arriba              sample.arriba            FusionName.arriba       
    ## <0 rows> (or 0-length row.names)

``` r
both_preds %>% select(lex_ordered_fusion_name, type.starF, type.arriba) %>% unique() %>% group_by(type.starF, type.arriba)
```

    ## # A tibble: 156 × 3
    ## # Groups:   type.starF, type.arriba [6]
    ##    lex_ordered_fusion_name type.starF type.arriba
    ##    <chr>                   <chr>      <chr>      
    ##  1 HCC1187|PLXND1--TMCC1   shared     shared     
    ##  2 HCC1395|EEFSEC--KPNA1   shared     shared     
    ##  3 VCAP|AP3S1--LMAN2       shared     shared     
    ##  4 HCC1395|LRCH3--RAB7A    shared     shared     
    ##  5 SKBR3|KLHDC2--SNTB1     shared     shared     
    ##  6 SKBR3|ANKHD1--PCDH1     shared     shared     
    ##  7 DMS53|CNTLN--USP43      shared     shared     
    ##  8 VCAP|PRKCH--VWA2        shared     shared     
    ##  9 DMS53|GALNT8--PRMT8     shared     shared     
    ## 10 SKBR3|TBC1D31--ZNF704   shared     shared     
    ## # ℹ 146 more rows
…
