…
``` r
full_join(StarF_overlapping_preds,
          all_pred_fusions_illum_support_indicated %>% filter(Illumina_support),
          by=c('lex_ordered_fusion_name',
               'type')
          ) %>% filter(type=='shared')
```

    ## Warning in full_join(StarF_overlapping_preds, all_pred_fusions_illum_support_indicated %>% : Detected an unexpected many-to-many relationship between `x` and `y`.
    ## ℹ Row 78 of `x` matches multiple rows in `y`.
    ## ℹ Row 9 of `y` matches multiple rows in `x`.
    ## ℹ If a many-to-many relationship is expected, set `relationship =
    ##   "many-to-many"` to silence this warning.

    ## # A tibble: 77 × 5
    ## # Rowwise: 
    ##    lex_ordered_fusion_name type   sample  FusionName     Illumina_support
    ##    <chr>                   <chr>  <chr>   <chr>          <lgl>           
    ##  1 HCC1395|CYP39A1--EIF3K  shared HCC1395 EIF3K--CYP39A1 TRUE            
    ##  2 VCAP|FAM172A--PDE4D     shared VCAP    PDE4D--FAM172A TRUE            
    ##  3 VCAP|EIF4E2--HJURP      shared VCAP    HJURP--EIF4E2  TRUE            
    ##  4 HCC1187|KMT2E--LHFPL3   shared HCC1187 KMT2E--LHFPL3  TRUE            
    ##  5 HCC1395|PLA2R1--RBMS1   shared HCC1395 PLA2R1--RBMS1  TRUE            
    ##  6 HCC1395|FUBP3--PRRC2B   shared HCC1395 PRRC2B--FUBP3  TRUE            
    ##  7 SKBR3|ANKHD1--PCDH1     shared SKBR3   ANKHD1--PCDH1  TRUE            
    ##  8 K562|BAG6--SLC44A4      shared K562    BAG6--SLC44A4  TRUE            
    ##  9 VCAP|ANO10--SLMAP       shared VCAP    SLMAP--ANO10   TRUE            
    ## 10 VCAP|ANO10--SLMAP       shared VCAP    ANO10--SLMAP   TRUE            
    ## # ℹ 67 more rows

``` r
StarF_overlapping_preds = StarF_overlapping_preds %>% rowwise() %>% mutate(proxy_fusion_name = paste0(sample, "|", FusionName)) %>%
    select(proxy_fusion_name, type, sample, FusionName) %>% unique()

StarF_overlapping_preds
```

    ## # A tibble: 95 × 4
    ## # Rowwise: 
    ##    proxy_fusion_name      type   sample  FusionName    
    ##    <chr>                  <chr>  <chr>   <chr>         
    ##  1 HCC1395|EIF3K--CYP39A1 shared HCC1395 EIF3K--CYP39A1
    ##  2 VCAP|PDE4D--FAM172A    shared VCAP    PDE4D--FAM172A
    ##  3 VCAP|HJURP--EIF4E2     shared VCAP    HJURP--EIF4E2 
    ##  4 HCC1187|KMT2E--LHFPL3  shared HCC1187 KMT2E--LHFPL3 
    ##  5 HCC1395|PLA2R1--RBMS1  shared HCC1395 PLA2R1--RBMS1 
    ##  6 HCC1395|PRRC2B--FUBP3  shared HCC1395 PRRC2B--FUBP3 
    ##  7 SKBR3|ANKHD1--PCDH1    shared SKBR3   ANKHD1--PCDH1 
    ##  8 K562|BAG6--SLC44A4     shared K562    BAG6--SLC44A4 
    ##  9 VCAP|SLMAP--ANO10      shared VCAP    SLMAP--ANO10  
    ## 10 VCAP|ANO10--SLMAP      shared VCAP    ANO10--SLMAP  
    ## # ℹ 85 more rows

``` r
# combining shared and uniquely pred fusions w/ illum support
```

``` r
full_join(StarF_overlapping_preds,
          all_pred_fusions_illum_support_indicated %>% filter(Illumina_support),
          by=c('proxy_fusion_name'='lex_ordered_fusion_name',
               'type')
          )
```

    ## # A tibble: 151 × 5
    ## # Rowwise: 
    ##    proxy_fusion_name      type   sample  FusionName     Illumina_support
    ##    <chr>                  <chr>  <chr>   <chr>          <lgl>           
    ##  1 HCC1395|EIF3K--CYP39A1 shared HCC1395 EIF3K--CYP39A1 NA              
    ##  2 VCAP|PDE4D--FAM172A    shared VCAP    PDE4D--FAM172A NA              
    ##  3 VCAP|HJURP--EIF4E2     shared VCAP    HJURP--EIF4E2  NA              
    ##  4 HCC1187|KMT2E--LHFPL3  shared HCC1187 KMT2E--LHFPL3  TRUE            
    ##  5 HCC1395|PLA2R1--RBMS1  shared HCC1395 PLA2R1--RBMS1  TRUE            
    ##  6 HCC1395|PRRC2B--FUBP3  shared HCC1395 PRRC2B--FUBP3  NA              
    ##  7 SKBR3|ANKHD1--PCDH1    shared SKBR3   ANKHD1--PCDH1  TRUE            
    ##  8 K562|BAG6--SLC44A4     shared K562    BAG6--SLC44A4  TRUE            
    ##  9 VCAP|SLMAP--ANO10      shared VCAP    SLMAP--ANO10   NA              
    ## 10 VCAP|ANO10--SLMAP      shared VCAP    ANO10--SLMAP   TRUE            
    ## # ℹ 141 more rows

``` r
StarF_overlapping_preds %>% filter(type=="shared")
```

    ## # A tibble: 77 × 4
    ## # Rowwise: 
    ##    proxy_fusion_name      type   sample  FusionName    
    ##    <chr>                  <chr>  <chr>   <chr>         
    ##  1 HCC1395|EIF3K--CYP39A1 shared HCC1395 EIF3K--CYP39A1
    ##  2 VCAP|PDE4D--FAM172A    shared VCAP    PDE4D--FAM172A
    ##  3 VCAP|HJURP--EIF4E2     shared VCAP    HJURP--EIF4E2 
    ##  4 HCC1187|KMT2E--LHFPL3  shared HCC1187 KMT2E--LHFPL3 
    ##  5 HCC1395|PLA2R1--RBMS1  shared HCC1395 PLA2R1--RBMS1 
    ##  6 HCC1395|PRRC2B--FUBP3  shared HCC1395 PRRC2B--FUBP3 
    ##  7 SKBR3|ANKHD1--PCDH1    shared SKBR3   ANKHD1--PCDH1 
    ##  8 K562|BAG6--SLC44A4     shared K562    BAG6--SLC44A4 
    ##  9 VCAP|SLMAP--ANO10      shared VCAP    SLMAP--ANO10  
    ## 10 VCAP|ANO10--SLMAP      shared VCAP    ANO10--SLMAP  
    ## # ℹ 67 more rows
…
