…
``` r
# 89 shared and 22 unique have illumina support
```

``` r
# the uniquely predicted fusions supported by Illumina

all_pred_fusions_illum_support_indicated %>% filter(type=='unique' & Illumina_support) %>% arrange(lex_ordered_fusion_name)
```

    ## # A tibble: 22 × 3
    ## # Rowwise: 
    ##    lex_ordered_fusion_name     type   Illumina_support
    ##    <chr>                       <chr>  <lgl>           
    ##  1 DMS53|AGAP1--IQCA1          unique TRUE            
    ##  2 DMS53|ANKRD18B--CNTNAP3B    unique TRUE            
    ##  3 HCC1187|APOD--RP11-447L10.1 unique TRUE            
    ##  4 HCC1187|BSDC1--MDGA1        unique TRUE            
    ##  5 HCC1187|CD276--NPTN         unique TRUE            
    ##  6 HCC1187|ENAH--PLEKHA6       unique TRUE            
    ##  7 HCC1187|HIVEP1--OFCC1       unique TRUE            
    ##  8 HCC1187|LINC01182--RAB28    unique TRUE            
    ##  9 HCC1395|AMD1P1--MLLT10      unique TRUE            
    ## 10 HCC1395|ASTN1--BRINP2       unique TRUE            
    ## # ℹ 12 more rows

``` r
Arriba_overlapping_preds = inner_join(all_pred_fusions_illum_support_indicated, arriba_fusions_df, by='lex_ordered_fusion_name', multiple='all')


Arriba_overlapping_preds = Arriba_overlapping_preds%>% select(lex_ordered_fusion_name, sample, type, FusionName) %>% unique()


Arriba_overlapping_preds
```

    ## # A tibble: 113 × 4
    ## # Rowwise: 
    ##    lex_ordered_fusion_name sample  type   FusionName    
    ##    <chr>                   <chr>   <chr>  <chr>         
    ##  1 HCC1395|CYP39A1--EIF3K  HCC1395 shared EIF3K--CYP39A1
    ##  2 VCAP|MAST4--NDUFAF2     VCAP    shared NDUFAF2--MAST4
    ##  3 VCAP|CNNM4--PARD3B      VCAP    shared CNNM4--PARD3B 
    ##  4 HCC1187|GCNT2--OFCC1    HCC1187 shared GCNT2--OFCC1  
    ##  5 KIJK|TAF12--YTHDF2      KIJK    shared YTHDF2--TAF12 
    ##  6 HCC1187|KMT2E--LHFPL3   HCC1187 shared KMT2E--LHFPL3 
    ##  7 HCC1395|ARHGAP12--HELZ  HCC1395 shared HELZ--ARHGAP12
    ##  8 K562|ABL1--BCR          K562    shared BCR--ABL1     
    ##  9 VCAP|AP3S1--LMAN2       VCAP    shared LMAN2--AP3S1  
    ## 10 SKBR3|GSDMB--TATDN1     SKBR3   shared TATDN1--GSDMB 
    ## # ℹ 103 more rows
…
Arriba_overlapping_preds = Arriba_overlapping_preds  %>% select(proxy_fusion_name, type, sample, FusionName, lex_ordered_fusion_name)
```

``` r
# all Illumina supported ones

full_join(Arriba_overlapping_preds,
          all_pred_fusions_illum_support_indicated %>% filter(Illumina_support),
          by=c('lex_ordered_fusion_name',
               'type')
          ) %>% filter(type=='shared')
```

    ## # A tibble: 90 × 6
    ## # Rowwise: 
    ##    proxy_fusion_name      type   sample  FusionName     lex_ordered_fusion_name
    ##    <chr>                  <chr>  <chr>   <chr>          <chr>                  
    ##  1 HCC1395|EIF3K--CYP39A1 shared HCC1395 EIF3K--CYP39A1 HCC1395|CYP39A1--EIF3K 
    ##  2 VCAP|NDUFAF2--MAST4    shared VCAP    NDUFAF2--MAST4 VCAP|MAST4--NDUFAF2    
    ##  3 VCAP|CNNM4--PARD3B     shared VCAP    CNNM4--PARD3B  VCAP|CNNM4--PARD3B     
    ##  4 HCC1187|GCNT2--OFCC1   shared HCC1187 GCNT2--OFCC1   HCC1187|GCNT2--OFCC1   
    ##  5 KIJK|YTHDF2--TAF12     shared KIJK    YTHDF2--TAF12  KIJK|TAF12--YTHDF2     
    ##  6 HCC1187|KMT2E--LHFPL3  shared HCC1187 KMT2E--LHFPL3  HCC1187|KMT2E--LHFPL3  
    ##  7 HCC1395|HELZ--ARHGAP12 shared HCC1395 HELZ--ARHGAP12 HCC1395|ARHGAP12--HELZ 
    ##  8 K562|BCR--ABL1         shared K562    BCR--ABL1      K562|ABL1--BCR         
    ##  9 VCAP|LMAN2--AP3S1      shared VCAP    LMAN2--AP3S1   VCAP|AP3S1--LMAN2      
    ## 10 SKBR3|TATDN1--GSDMB    shared SKBR3   TATDN1--GSDMB  SKBR3|GSDMB--TATDN1    
    ## # ℹ 80 more rows
    ## # ℹ 1 more variable: Illumina_support <lgl>

``` r
Arriba_overlapping_preds %>% filter(type=="shared") %>% group_by(lex_ordered_fusion_name) %>% tally() %>% filter(n>1)
```

    ## # A tibble: 1 × 2
    ##   lex_ordered_fusion_name     n
    ##   <chr>                   <int>
    ## 1 VCAP|ANO10--SLMAP           2

``` r
Arriba_overlapping_preds %>% filter(type=="unique")
```

    ## # A tibble: 23 × 5
    ## # Rowwise: 
    ##    proxy_fusion_name        type   sample  FusionName     lex_ordered_fusion_n…¹
    ##    <chr>                    <chr>  <chr>   <chr>          <chr>                 
    ##  1 VCAP|ZDHHC7--UNK         unique VCAP    UNK--ZDHHC7    VCAP|UNK--ZDHHC7      
    ##  2 HCC1395|ATAD1--PTEN      unique HCC1395 ATAD1--PTEN    HCC1395|ATAD1--PTEN   
    ##  3 DMS53|AGAP1--IQCA1       unique DMS53   AGAP1--IQCA1   DMS53|AGAP1--IQCA1    
    ##  4 SKBR3|KLHDC2--CEP112     unique SKBR3   KLHDC2--CEP112 SKBR3|CEP112--KLHDC2  
    ##  5 SKBR3|CPNE1--PREX1       unique SKBR3   CPNE1--PREX1   SKBR3|CPNE1--PREX1    
    ##  6 SKBR3|CPNE1--PREX1       unique SKBR3   PREX1--CPNE1   SKBR3|CPNE1--PREX1    
    ##  7 HCC1187|OFCC1--HIVEP1    unique HCC1187 HIVEP1--OFCC1  HCC1187|HIVEP1--OFCC1 
    ##  8 HCC1187|RAB28--LINC01182 unique HCC1187 RAB28--LINC01… HCC1187|LINC01182--RA…
    ##  9 K562|GPC6--FAM155A       unique K562    FAM155A--GPC6  K562|FAM155A--GPC6    
    ## 10 DMS53|ANKRD18B--CNTNAP3B unique DMS53   ANKRD18B--CNT… DMS53|ANKRD18B--CNTNA…
    ## # ℹ 13 more rows
    ## # ℹ abbreviated name: ¹​lex_ordered_fusion_name
…
