…
``` r
read_support_agg = read_support_agg %>% mutate(validated_fusion = (proxy_fusion_name %in% validated_fusions$validated_fusion)) 
```

``` r
read_support_agg_scored = read_support_agg %>% 
    #group_by(seqtype, prog, sample)  %>%
     group_by(prog) %>%
     arrange(desc(sum_reads), desc(validated_fusion)) %>% 
    mutate(num_valid = cumsum(validated_fusion), num_other = cumsum(! validated_fusion))

read_support_agg_scored %>% filter(prog == 'ctat-LR-fusion') 
```

    ## # A tibble: 4,432 × 7
    ## # Groups:   prog [1]
    ##    proxy_fusion_name prog  core_sample_name sum_reads validated_fusion num_valid
    ##    <chr>             <chr> <chr>                <int> <lgl>                <int>
    ##  1 MCF7|BCAS4--BCAS3 ctat… MCF7                  3672 TRUE                     1
    ##  2 MCF7|AC099850.1-… ctat… MCF7                   756 TRUE                     2
    ##  3 MCF7|ARFGEF2--SU… ctat… MCF7                   433 TRUE                     3
    ##  4 MCF7|SLC25A24--N… ctat… MCF7                   179 TRUE                     4
    ##  5 K562|BAG6--SLC44… ctat… K562                   176 TRUE                     5
    ##  6 MCF7|SYTL2--PICA… ctat… MCF7                    64 TRUE                     6
    ##  7 MCF7|AHCYL1--RAD… ctat… MCF7                    52 TRUE                     7
    ##  8 K562|NUP214--XKR3 ctat… K562                    50 TRUE                     8
    ##  9 MCF7|RSBN1--AP4B… ctat… MCF7                    44 TRUE                     9
    ## 10 MCF7|RPS6KB1--DI… ctat… MCF7                    42 TRUE                    10
    ## # ℹ 4,422 more rows
    ## # ℹ 1 more variable: num_other <int>

``` r
read_support_agg_scored %>% filter(prog == 'JAFFAL')
```

    ## # A tibble: 2,584 × 7
    ## # Groups:   prog [1]
    ##    proxy_fusion_name prog  core_sample_name sum_reads validated_fusion num_valid
    ##    <chr>             <chr> <chr>                <int> <lgl>                <int>
    ##  1 MCF7|BCAS4--BCAS3 JAFF… MCF7                  3382 TRUE                     1
    ##  2 MCF7|AC099850.1-… JAFF… MCF7                   592 TRUE                     2
    ##  3 MCF7|ARFGEF2--SU… JAFF… MCF7                   253 TRUE                     3
    ##  4 MCF7|SLC25A24--N… JAFF… MCF7                   117 TRUE                     4
    ##  5 MCF7|SYTL2--PICA… JAFF… MCF7                    55 TRUE                     5
    ##  6 MCF7|AHCYL1--RAD… JAFF… MCF7                    47 TRUE                     6
    ##  7 MCF7|RPS6KB1--DI… JAFF… MCF7                    42 TRUE                     7
    ##  8 MCF7|ATP1A1--ZFP… JAFF… MCF7                    38 TRUE                     8
    ##  9 MCF7|RSBN1--AP4B… JAFF… MCF7                    37 TRUE                     9
    ## 10 MCF7|BCAS4--ZMYN… JAFF… MCF7                    34 TRUE                    10
    ## # ℹ 2,574 more rows
    ## # ℹ 1 more variable: num_other <int>
…
``` r
# examine Venn for valid fusions

read_support_agg_scored  %>% filter(validated_fusion) %>% group_by(proxy_fusion_name) %>%
    arrange(prog) %>%
    mutate(progs = paste(collapse=",", prog)) %>%
    ungroup() %>%
    select(proxy_fusion_name, progs) %>% unique()
```

    ## # A tibble: 42 × 2
    ##    proxy_fusion_name     progs                                             
    ##    <chr>                 <chr>                                             
    ##  1 MCF7|BCAS4--BCAS3     JAFFAL,LongGF,ctat-LR-fusion,pbfusion             
    ##  2 MCF7|AC099850.1--VMP1 JAFFAL,ctat-LR-fusion,fusionseeker,pbfusion       
    ##  3 MCF7|ARFGEF2--SULF2   JAFFAL,LongGF,ctat-LR-fusion,fusionseeker,pbfusion
    ##  4 MCF7|SLC25A24--NBPF6  JAFFAL,LongGF,ctat-LR-fusion,fusionseeker,pbfusion
    ##  5 MCF7|SYTL2--PICALM    JAFFAL,LongGF,ctat-LR-fusion,fusionseeker,pbfusion
    ##  6 MCF7|AHCYL1--RAD51C   JAFFAL,LongGF,ctat-LR-fusion,fusionseeker,pbfusion
    ##  7 MCF7|RPS6KB1--DIAPH3  JAFFAL,LongGF,ctat-LR-fusion,fusionseeker         
    ##  8 MCF7|ATP1A1--ZFP64    JAFFAL,LongGF,ctat-LR-fusion,fusionseeker,pbfusion
    ##  9 MCF7|RSBN1--AP4B1-AS1 JAFFAL,ctat-LR-fusion,fusionseeker,pbfusion       
    ## 10 MCF7|BCAS4--ZMYND8    JAFFAL,LongGF,ctat-LR-fusion,fusionseeker,pbfusion
    ## # ℹ 32 more rows
…
``` r
read_support_agg_scored  %>% filter(validated_fusion) %>% 
    filter(prog %in% c('JAFFAL', 'ctat-LR-fusion')) %>%
    group_by(proxy_fusion_name) %>%
    arrange(prog) %>%
    mutate(progs = paste(collapse=",", prog)) %>%
    arrange(desc(progs))
```

    ## # A tibble: 66 × 8
    ## # Groups:   proxy_fusion_name [37]
    ##    proxy_fusion_name prog  core_sample_name sum_reads validated_fusion num_valid
    ##    <chr>             <chr> <chr>                <int> <lgl>                <int>
    ##  1 MCF7|ABCA5--PPP4… ctat… MCF7                     3 TRUE                    27
    ##  2 K562|RP11-307P5.… ctat… K562                     1 TRUE                    30
    ##  3 MCF7|BCAS3--AMPD1 ctat… MCF7                     1 TRUE                    31
    ##  4 MCF7|VAV3--AP4B1… ctat… MCF7                     1 TRUE                    33
    ##  5 MCF7|BCAS4--BCAS3 JAFF… MCF7                  3382 TRUE                     1
    ##  6 MCF7|AC099850.1-… JAFF… MCF7                   592 TRUE                     2
    ##  7 MCF7|ARFGEF2--SU… JAFF… MCF7                   253 TRUE                     3
    ##  8 MCF7|SLC25A24--N… JAFF… MCF7                   117 TRUE                     4
    ##  9 MCF7|SYTL2--PICA… JAFF… MCF7                    55 TRUE                     5
    ## 10 MCF7|AHCYL1--RAD… JAFF… MCF7                    47 TRUE                     6
    ## # ℹ 56 more rows
    ## # ℹ 2 more variables: num_other <int>, progs <chr>
…
