…
for (control_fusion in control_fusions) {
    
    geneA = str_split(control_fusion, "--")[[1]][1]
    geneB = str_split(control_fusion, "--")[[1]][2]
    
    fusion_gene_cpm_means = bind_rows(fusion_gene_cpm_means,
                                      bind_rows(
                                        gene_read_CPM_means_tibble %>% filter(gene_symbol == geneA),
                                        gene_read_CPM_means_tibble %>% filter(gene_symbol == geneB))  %>% mutate(fusion = control_fusion)  )
}

fusion_gene_cpm_means
```

    ## # A tibble: 32 × 5
    ##    mean_LR_CPM mean_SR_CPM gene_id                    gene_symbol fusion       
    ##          <dbl>       <dbl> <chr>                      <chr>       <chr>        
    ##  1      6.01        21.2   KIF5B|ENSG00000170759.10   KIF5B       KIF5B--RET   
    ##  2      0.0151       0.428 RET|ENSG00000165731.16     RET         KIF5B--RET   
    ##  3      5.17         9.17  SLC34A2|ENSG00000157765.10 SLC34A2     SLC34A2--ROS1
    ##  4      0.0281       0.240 ROS1|ENSG00000047936.9     ROS1        SLC34A2--ROS1
    ##  5      0.0454       0.241 FGFR3|ENSG00000068078.16   FGFR3       FGFR3--TACC3 
    ##  6      5.12        51.1   TACC3|ENSG00000013810.17   TACC3       FGFR3--TACC3 
    ##  7      7.22        80.3   LMNA|ENSG00000160789.18    LMNA        LMNA--NTRK1  
    ##  8      2.09         1.64  NTRK1|ENSG00000198400.10   NTRK1       LMNA--NTRK1  
    ##  9   1047.        4578.    CD74|ENSG00000019582.13    CD74        CD74--ROS1   
    ## 10      0.0281       0.240 ROS1|ENSG00000047936.9     ROS1        CD74--ROS1   
    ## # ℹ 22 more rows
…
