…
``` r
# sum read counts across isoforms for each fusion

cosmic_fusion_preds= left_join(cosmic_fusions, 
                                unfiltered_preds %>% select(proxy_fusion_name, prog, breakpoint, num_reads),
                                by='proxy_fusion_name') %>%
    group_by(sample, proxy_fusion_name, prog) %>%
    mutate(num_reads = sum(num_reads)) %>%
    ungroup() %>%
    select(sample, proxy_fusion_name, prog, num_reads) %>% unique()

cosmic_fusion_preds
```

    ## # A tibble: 43 × 4
    ##    sample  proxy_fusion_name      prog           num_reads
    ##    <chr>   <chr>                  <chr>              <int>
    ##  1 HCC1395 HCC1395|CYP39A1--EIF3K ctat-LR-fusion        63
    ##  2 HCC1395 HCC1395|CYP39A1--EIF3K LongGF                55
    ##  3 HCC1395 HCC1395|CYP39A1--EIF3K JAFFAL                66
    ##  4 HCC1395 HCC1395|CYP39A1--EIF3K fusionseeker          66
    ##  5 HCC1395 HCC1395|CYP39A1--EIF3K pbfusion              66
    ##  6 HCC1395 HCC1395|PLA2R1--RBMS1  ctat-LR-fusion        40
    ##  7 HCC1395 HCC1395|PLA2R1--RBMS1  LongGF                39
    ##  8 HCC1395 HCC1395|PLA2R1--RBMS1  JAFFAL                39
    ##  9 HCC1395 HCC1395|PLA2R1--RBMS1  fusionseeker          40
    ## 10 HCC1395 HCC1395|PLA2R1--RBMS1  pbfusion              41
    ## # ℹ 33 more rows
…
