…
    ## 
    ##       arriba arriba,starF        starF 
    ##          190           92          174

``` r
# 190 +  92 +  174  = 456
```

``` r
illumina_preds %>% group_by(sample, progs) %>% tally() 
```

    ## # A tibble: 26 × 3
    ## # Groups:   sample [9]
    ##    sample  progs            n
    ##    <chr>   <chr>        <int>
    ##  1 DMS53   arriba          34
    ##  2 DMS53   arriba,starF    11
    ##  3 DMS53   starF           31
    ##  4 HCC1187 arriba          30
    ##  5 HCC1187 arriba,starF    13
    ##  6 HCC1187 starF           20
    ##  7 HCC1395 arriba          40
    ##  8 HCC1395 arriba,starF    16
    ##  9 HCC1395 starF           27
    ## 10 K562    arriba          13
    ## # ℹ 16 more rows
…
        num_fusion_preds = fusion_preds %>% filter(num_reads >= i) %>%
            group_by(lex_ordered_fusion_name, illumina_supported) %>% tally() %>% filter(n > min_progs_agree) %>% ungroup() %>%
            group_by(illumina_supported) %>% tally(name='num_fusions')
        
        fusion_counts_min_agree_vs_illum_supported = bind_rows(fusion_counts_min_agree_vs_illum_supported, 
                                                           num_fusion_preds %>% mutate(min_read_support = i, min_progs_agree = min_progs_agree)
                                                           )
    }
}

fusion_counts_min_agree_vs_illum_supported
```

    ## # A tibble: 60 × 4
    ##    illumina_supported num_fusions min_read_support min_progs_agree
    ##    <lgl>                    <int>            <int>           <int>
    ##  1 FALSE                    15135                1               2
    ##  2 TRUE                       134                1               2
    ##  3 FALSE                     6625                1               3
    ##  4 TRUE                       111                1               3
    ##  5 FALSE                     3501                1               4
    ##  6 TRUE                        72                1               4
    ##  7 FALSE                      364                2               2
    ##  8 TRUE                       112                2               2
    ##  9 FALSE                      256                2               3
    ## 10 TRUE                        91                2               3
    ## # ℹ 50 more rows
…
