…
# any fusions found only via short read data?

``` r
fusions_with_long_read = Tum_data %>% filter(method == "ctat-LR-fusion") %>% select(FusionName) %>% unique()

fusions_with_long_read = fusions_with_long_read %>% filter(! FusionName %in% Om_data$FusionName)

short_read_only_fusions = Tum_data %>% filter( ! FusionName %in% fusions_with_long_read$FusionName) %>% select(FusionName, method) %>% unique() %>%
    group_by(FusionName) %>% mutate(methods = paste(collapse=",", method), num_methods = n()) %>%
    select(FusionName, methods, num_methods) %>% unique() %>% arrange(desc(num_methods)) 

short_read_only_fusions
```

    ## # A tibble: 195 × 3
    ## # Groups:   FusionName [195]
    ##    FusionName        methods                            num_methods
    ##    <chr>             <chr>                                    <int>
    ##  1 DHCR24--CCDC6     STAR-Fusion,FusionInspector,Arriba           3
    ##  2 KMT2C--RASSF9     STAR-Fusion,FusionInspector,Arriba           3
    ##  3 PRKCH--PRKAR1A    STAR-Fusion,FusionInspector,Arriba           3
    ##  4 ANKH--WFDC2       STAR-Fusion,FusionInspector                  2
    ##  5 ARMC4P1--CD38     STAR-Fusion,FusionInspector                  2
    ##  6 BTG2--LRRC8A      STAR-Fusion,FusionInspector                  2
    ##  7 CAMK1D--WAPAL     STAR-Fusion,FusionInspector                  2
    ##  8 CAMTA1--LINC01191 STAR-Fusion,FusionInspector                  2
    ##  9 CDK7--MZF1        STAR-Fusion,Arriba                           2
    ## 10 CDK8--AP3M2       STAR-Fusion,FusionInspector                  2
    ## # ℹ 185 more rows
…
