…
tumor_cell_counts_by_methods = all_data %>% filter(FusionName %in%  fusions_of_interest$FusionName) %>% 
        select(FusionName, method, barcodes) %>% unique() %>%
        group_by(FusionName, barcodes) %>% 
        arrange(method) %>%
        mutate(methods = paste(method, collapse=',')) %>%
        ungroup() %>%
        select(FusionName, methods, barcodes) %>% group_by(FusionName, methods) %>% tally()


tumor_cell_counts_by_methods 
```

    ## # A tibble: 32 × 3
    ## # Groups:   FusionName [13]
    ##    FusionName                   methods                                        n
    ##    <chr>                        <chr>                                      <int>
    ##  1 CBL--KMT2A                   ctat-LR-fusion                                17
    ##  2 CTD-2008L17.1--RP11-456O19.2 FusionInspector                                1
    ##  3 CTD-2008L17.1--RP11-456O19.2 FusionInspector,STAR-Fusion                    6
    ##  4 CTD-2008L17.1--RP11-456O19.2 FusionInspector,STAR-Fusion,ctat-LR-fusion     6
    ##  5 CTD-2008L17.1--RP11-456O19.2 FusionInspector,ctat-LR-fusion                 4
    ##  6 CTD-2008L17.1--RP11-456O19.2 ctat-LR-fusion                                 1
    ##  7 DEK--CASC17                  ctat-LR-fusion                                11
    ##  8 DUXAP8--LA16c-60G3.6         ctat-LR-fusion                                 7
    ##  9 IGF2BP2--TESPA1              FusionInspector                                1
    ## 10 IGF2BP2--TESPA1              FusionInspector,STAR-Fusion                    6
    ## # … with 22 more rows
…
