…
``` r
Tum_fusion_frac_cell_types = Tum_data %>% select(FusionName, barcodes, celltype_final) %>% unique() %>%
    group_by(FusionName, celltype_final) %>% tally(name='tot_cells_w_fusion') %>% 
    mutate(frac_fusion_cells=prop.table(tot_cells_w_fusion)) %>%
    arrange(desc(tot_cells_w_fusion))

Tum_fusion_frac_cell_types %>% filter(tot_cells_w_fusion >= MIN_CELLS)
```

    ## # A tibble: 27 × 4
    ## # Groups:   FusionName [10]
    ##    FusionName            celltype_final    tot_cells_w_fusion frac_fusion_cells
    ##    <chr>                 <chr>                          <int>             <dbl>
    ##  1 ZCCHC8--RSRC2         T.NK.cells                       105            0.35  
    ##  2 ZCCHC8--RSRC2         Myeloid.cells                     99            0.33  
    ##  3 RP11-60E8.2--MINOS1P3 Myeloid.cells                     64            0.381 
    ##  4 RP11-208G20.2--PSPHP1 T.NK.cells                        38            0.297 
    ##  5 RP11-60E8.2--MINOS1P3 HGSOC                             33            0.196 
    ##  6 RP11-208G20.2--PSPHP1 Myeloid.cells                     30            0.234 
    ##  7 ZCCHC8--RSRC2         HGSOC                             30            0.1   
    ##  8 RP11-60E8.2--MINOS1P3 T.NK.cells                        26            0.155 
    ##  9 ZCCHC8--RSRC2         Mesothelial.cells                 26            0.0867
    ## 10 RP11-60E8.2--MINOS1P3 Mesothelial.cells                 25            0.149 
    ## # … with 17 more rows
…
