…
``` r
data_GB %>%
    filter(rn <= 5) %>%
    arrange(sample, rn) %>%
    select(sample, FusionName, threePrimeBrkLen, `SR_GB/LR_GB`)
```

    ## # A tibble: 45 × 4
    ##    sample  FusionName                   threePrimeBrkLen `SR_GB/LR_GB`
    ##    <chr>   <chr>                                   <dbl>         <dbl>
    ##  1 DMS53   USP43--CNTLN                             366          15.0 
    ##  2 DMS53   RP11-59N23.1--CMAS                      1393           6.20
    ##  3 DMS53   RP11-507B12.1--RP11-507B12.2             622           2.82
    ##  4 DMS53   NLRP1--STAT5A                           3281           1.88
    ##  5 DMS53   PEX5L--STRADB                           1636           1.32
    ##  6 HCC1187 PUM1--TRERF1                            4142.         17.4 
    ##  7 HCC1187 RP11-123O10.4--GRIP1                    4851           5.15
    ##  8 HCC1187 RP11-123O10.4--GRIP1                    1523           5.15
    ##  9 HCC1187 RP11-123O10.4--GRIP1                    4390           5.15
    ## 10 HCC1187 SEC22B--NOTCH2                          5782           4.18
    ## # ℹ 35 more rows
…
