…
``` r
read_support_sample %>% filter(validated_fusion) %>% 
    select(sample, lex_sorted_fusion_name, prog) %>% unique() %>%
    group_by(lex_sorted_fusion_name) %>% 
    arrange(prog) %>% 
    mutate(progs = paste(prog, collapse=","), num_progs = n()) %>% 
    select(sample, lex_sorted_fusion_name, progs, num_progs) %>%
    unique() %>%
    arrange(sample, desc(num_progs))
```

    ## # A tibble: 29 × 4
    ## # Groups:   lex_sorted_fusion_name [29]
    ##    sample lex_sorted_fusion_name progs                                 num_progs
    ##    <chr>  <chr>                  <chr>                                     <int>
    ##  1 A549   A549|SCAMP2--WDR72     JAFFAL,LongGF,ctat-LR-fusion,fusions…         5
    ##  2 K562   K562|NUP214--XKR3      JAFFAL,LongGF,ctat-LR-fusion,fusions…         5
    ##  3 K562   K562|ABL1--BCR         JAFFAL,LongGF,ctat-LR-fusion,fusions…         4
    ##  4 MCF7   MCF7|BCAS3--BCAS4      JAFFAL,LongGF,ctat-LR-fusion,fusions…         5
    ##  5 MCF7   MCF7|ARFGEF2--SULF2    JAFFAL,LongGF,ctat-LR-fusion,fusions…         5
    ##  6 MCF7   MCF7|NBPF6--SLC25A24   JAFFAL,LongGF,ctat-LR-fusion,fusions…         5
    ##  7 MCF7   MCF7|PICALM--SYTL2     JAFFAL,LongGF,ctat-LR-fusion,fusions…         5
    ##  8 MCF7   MCF7|AHCYL1--RAD51C    JAFFAL,LongGF,ctat-LR-fusion,fusions…         5
    ##  9 MCF7   MCF7|ATP1A1--ZFP64     JAFFAL,LongGF,ctat-LR-fusion,fusions…         5
    ## 10 MCF7   MCF7|BCAS4--ZMYND8     JAFFAL,LongGF,ctat-LR-fusion,fusions…         5
    ## # ℹ 19 more rows
…
``` r
read_support_sample %>% filter(validated_fusion | !is.na(matched_illumina)) %>% 
    select(sample, lex_sorted_fusion_name, validated_fusion, matched_illumina, prog) %>% unique() %>%
    group_by(lex_sorted_fusion_name) %>% 
    arrange(prog) %>% 
    mutate(progs = paste(prog, collapse=","), num_progs = n()) %>% 
    select(sample, lex_sorted_fusion_name, validated_fusion, matched_illumina, progs, num_progs) %>%
    unique() %>%
    arrange(sample, desc(num_progs))
```

    ## # A tibble: 76 × 6
    ## # Groups:   lex_sorted_fusion_name [76]
    ##    sample lex_sorted_fusion_name      validated_fusion matched_illumina progs   
    ##    <chr>  <chr>                       <lgl>            <chr>            <chr>   
    ##  1 A549   A549|SCAMP2--WDR72          TRUE             starF,arriba     JAFFAL,…
    ##  2 A549   A549|ACACA--PLXDC1          FALSE            starF,arriba     JAFFAL,…
    ##  3 A549   A549|RP11-69H14.6--ZNF43    FALSE            arriba           JAFFAL,…
    ##  4 A549   A549|MTAP--RP11-408N14.1    FALSE            arriba           fusions…
    ##  5 A549   A549|LRRN2--PLEKHA6         FALSE            arriba           fusions…
    ##  6 A549   A549|HERC2P3--RP11-603B24.1 FALSE            starF            fusions…
    ##  7 K562   K562|NUP214--XKR3           TRUE             starF,arriba     JAFFAL,…
    ##  8 K562   K562|BAG6--SLC44A4          FALSE            starF,arriba     JAFFAL,…
    ##  9 K562   K562|C16orf87--ORC6         FALSE            starF,arriba     JAFFAL,…
    ## 10 K562   K562|ABL1--BCR              TRUE             starF,arriba     JAFFAL,…
    ## # ℹ 66 more rows
    ## # ℹ 1 more variable: num_progs <int>
…
``` r
read_support_sample %>% filter(validated_fusion | !is.na(matched_illumina) | !is.na(other_illumina) ) %>% 
    select(sample, lex_sorted_fusion_name, validated_fusion, matched_illumina, other_illumina, prog) %>% unique() %>%
    group_by(lex_sorted_fusion_name) %>% 
    arrange(prog) %>% 
    mutate(progs = paste(prog, collapse=","), num_progs = n()) %>% 
    select(sample, lex_sorted_fusion_name, validated_fusion, matched_illumina, other_illumina, progs, num_progs) %>%
    unique() %>%
    arrange(sample, desc(num_progs))
```

    ## # A tibble: 79 × 7
    ## # Groups:   lex_sorted_fusion_name [79]
    ##    sample lex_sorted_fusion_name      validated_fusion matched_illumina
    ##    <chr>  <chr>                       <lgl>            <chr>           
    ##  1 A549   A549|SCAMP2--WDR72          TRUE             starF,arriba    
    ##  2 A549   A549|ACACA--PLXDC1          FALSE            starF,arriba    
    ##  3 A549   A549|RP11-69H14.6--ZNF43    FALSE            arriba          
    ##  4 A549   A549|MTAP--RP11-408N14.1    FALSE            arriba          
    ##  5 A549   A549|LRRN2--PLEKHA6         FALSE            arriba          
    ##  6 A549   A549|HERC2P3--RP11-603B24.1 FALSE            starF           
    ##  7 K562   K562|NUP214--XKR3           TRUE             starF,arriba    
    ##  8 K562   K562|BAG6--SLC44A4          FALSE            starF,arriba    
    ##  9 K562   K562|C16orf87--ORC6         FALSE            starF,arriba    
    ## 10 K562   K562|ABL1--BCR              TRUE             starF,arriba    
    ## # ℹ 69 more rows
    ## # ℹ 3 more variables: other_illumina <chr>, progs <chr>, num_progs <int>

``` r
# which validated fusions do we find?

read_support_sample %>% filter(validated_fusion) %>% select(lex_sorted_fusion_name) %>% unique()
```

    ## # A tibble: 29 × 1
    ## # Rowwise: 
    ##    lex_sorted_fusion_name
    ##    <chr>                 
    ##  1 MCF7|BCAS3--BCAS4     
    ##  2 MCF7|AC099850.1--VMP1 
    ##  3 MCF7|ARFGEF2--SULF2   
    ##  4 MCF7|NBPF6--SLC25A24  
    ##  5 MCF7|PICALM--SYTL2    
    ##  6 MCF7|ATP1A1--ZFP64    
    ##  7 MCF7|AHCYL1--RAD51C   
    ##  8 MCF7|AP4B1-AS1--RSBN1 
    ##  9 MCF7|BCAS4--ZMYND8    
    ## 10 K562|NUP214--XKR3     
    ## # ℹ 19 more rows
…
``` r
read_support_sample = read_support_sample %>% mutate(as_truth = (validated_fusion | !is.na(matched_illumina) | !is.na(other_illumina)) )
```

``` r
read_support_sample %>% filter(as_truth) %>% 
    select(lex_sorted_fusion_name, validated_fusion, matched_illumina, other_illumina) %>% 
    unique()
```

    ## # A tibble: 79 × 4
    ## # Rowwise: 
    ##    lex_sorted_fusion_name   validated_fusion matched_illumina other_illumina
    ##    <chr>                    <lgl>            <chr>            <chr>         
    ##  1 MCF7|BCAS3--BCAS4        TRUE             starF,arriba     <NA>          
    ##  2 MCF7|AC099850.1--VMP1    TRUE             starF,arriba     <NA>          
    ##  3 MCF7|ARFGEF2--SULF2      TRUE             starF,arriba     <NA>          
    ##  4 MCF7|SULF2--ZNF217       FALSE            arriba           <NA>          
    ##  5 MCF7|NBPF6--SLC25A24     TRUE             starF,arriba     <NA>          
    ##  6 K562|BAG6--SLC44A4       FALSE            starF,arriba     starF,arriba  
    ##  7 MCF7|PPM1D--USP32        FALSE            arriba           <NA>          
    ##  8 MCF7|PICALM--SYTL2       TRUE             starF,arriba     <NA>          
    ##  9 MCF7|RSBN1--VAV3         FALSE            arriba           <NA>          
    ## 10 A549|MTAP--RP11-408N14.1 FALSE            arriba           <NA>          
    ## # ℹ 69 more rows
…
``` r
# score fusions

read_support_sample_scored = read_support_sample %>% 
     group_by(prog, runtype) %>%
     arrange(desc(num_reads), desc(as_truth)) %>% 
    mutate(num_valid = cumsum(as_truth), num_other = cumsum(! as_truth)) %>%
    ungroup()
```

``` r
read_support_sample_scored %>% filter(prog == 'ctat-LR-fusion')  %>% head(50)
```

    ## # A tibble: 50 × 16
    ##    proxy_fusion_name  proxy_fusion_type sample prog  fusion breakpoint num_reads
    ##    <chr>              <chr>             <chr>  <chr> <chr>  <chr>          <int>
    ##  1 MCF7|BCAS3--BCAS4  recip_known_vali… MCF7   ctat… BCAS4… chr20:507…      3942
    ##  2 MCF7|BCAS3--BCAS4  recip_known_vali… MCF7   ctat… BCAS4… chr20:507…      3942
    ##  3 MCF7|AC099850.1--… known_validated   MCF7   ctat… AC099… chr17:591…      1106
    ##  4 MCF7|AC099850.1--… known_validated   MCF7   ctat… AC099… chr17:591…      1106
    ##  5 MCF7|ARFGEF2--SUL… known_validated   MCF7   ctat… ARFGE… chr20:489…       576
    ##  6 MCF7|ARFGEF2--SUL… known_validated   MCF7   ctat… ARFGE… chr20:489…       576
    ##  7 MCF7|NBPF6--SLC25… recip_known_vali… MCF7   ctat… SLC25… chr1:1081…       252
    ##  8 MCF7|NBPF6--SLC25… recip_known_vali… MCF7   ctat… SLC25… chr1:1081…       252
    ##  9 K562|BAG6--SLC44A4 known_validated   K562   ctat… BAG6-… chr6:3165…       176
    ## 10 K562|BAG6--SLC44A4 known_validated   K562   ctat… BAG6-… chr6:3165…       176
    ## # ℹ 40 more rows
    ## # ℹ 9 more variables: annots <chr>, runtype <chr>,
    ## #   lex_sorted_fusion_name <chr>, validated_fusion <lgl>,
    ## #   matched_illumina <chr>, other_illumina <chr>, as_truth <lgl>,
    ## #   num_valid <int>, num_other <int>
…
    ## Warning: Transformation introduced infinite values in continuous x-axis
    ## Transformation introduced infinite values in continuous x-axis

``` r
# examine Venn for valid fusions

read_support_sample_scored  %>% filter(as_truth) %>% group_by(lex_sorted_fusion_name, runtype) %>%
    arrange(prog) %>%
    mutate(progs = paste(collapse=",", prog)) %>%
    ungroup() %>%
    select(runtype, lex_sorted_fusion_name, progs) %>% unique() %>% 
    arrange(runtype, lex_sorted_fusion_name, progs)
```

    ## # A tibble: 135 × 3
    ##    runtype                lex_sorted_fusion_name           progs                
    ##    <chr>                  <chr>                            <chr>                
    ##  1 fuzzy_brkpt_restricted A549|ACACA--PLXDC1               ctat-LR-fusion,JAFFA…
    ##  2 fuzzy_brkpt_restricted A549|HERC2P3--RP11-603B24.1      fusionseeker         
    ##  3 fuzzy_brkpt_restricted A549|RP11-69H14.6--ZNF43         ctat-LR-fusion,JAFFA…
    ##  4 fuzzy_brkpt_restricted A549|SCAMP2--WDR72               ctat-LR-fusion,JAFFA…
    ##  5 fuzzy_brkpt_restricted K562|ABL1--BCR                   ctat-LR-fusion,JAFFA…
    ##  6 fuzzy_brkpt_restricted K562|BAG6--SLC44A4               ctat-LR-fusion,JAFFA…
    ##  7 fuzzy_brkpt_restricted K562|C16orf87--ORC6              ctat-LR-fusion,JAFFA…
    ##  8 fuzzy_brkpt_restricted K562|CCDC26--LINC00977           pbfusion             
    ##  9 fuzzy_brkpt_restricted K562|CEP70--FAIM                 ctat-LR-fusion,JAFFA…
    ## 10 fuzzy_brkpt_restricted K562|CTC-786C10.1--RP11-680G10.1 pbfusion             
    ## # ℹ 125 more rows

``` r
read_support_sample_scored  %>% filter(as_truth) %>% group_by(lex_sorted_fusion_name, runtype) %>%
    arrange(prog) %>%
    mutate(progs = paste(collapse=",", prog)) %>%
    ungroup() %>%
    select(lex_sorted_fusion_name, progs, runtype) %>% unique() %>% 
    group_by(progs, runtype) %>% tally() %>%
    arrange(desc(n))
```

    ## # A tibble: 25 × 3
    ## # Groups:   progs [13]
    ##    progs                                              runtype                  n
    ##    <chr>                                              <chr>                <int>
    ##  1 ctat-LR-fusion,JAFFAL,LongGF,fusionseeker,pbfusion fuzzy_brkpt_restric…    19
    ##  2 ctat-LR-fusion,JAFFAL,LongGF,fusionseeker,pbfusion regular                 19
    ##  3 fusionseeker                                       regular                 15
    ##  4 ctat-LR-fusion,JAFFAL,LongGF,fusionseeker          regular                 11
    ##  5 ctat-LR-fusion,JAFFAL,LongGF,fusionseeker          fuzzy_brkpt_restric…    10
    ##  6 LongGF,fusionseeker                                regular                  9
    ##  7 ctat-LR-fusion,JAFFAL,fusionseeker,pbfusion        fuzzy_brkpt_restric…     6
    ##  8 ctat-LR-fusion,JAFFAL,fusionseeker,pbfusion        regular                  6
    ##  9 ctat-LR-fusion                                     fuzzy_brkpt_restric…     5
    ## 10 ctat-LR-fusion                                     regular                  5
    ## # ℹ 15 more rows
…
``` r
lex_sorted_validated_fusions = read_support_sample_scored  %>% filter(as_truth) %>% 
    select(lex_sorted_fusion_name, validated_fusion, matched_illumina, other_illumina ) %>% 
    unique() %>%
    arrange(lex_sorted_fusion_name)

write.table(lex_sorted_validated_fusions, 
            file='SGNEx-as_truth_fusions.lex_ordered.tsv', quote=F, row.names=F, col.names=T, sep="\t")

lex_sorted_validated_fusions
```

    ## # A tibble: 79 × 4
    ##    lex_sorted_fusion_name      validated_fusion matched_illumina other_illumina
    ##    <chr>                       <lgl>            <chr>            <chr>         
    ##  1 A549|ACACA--PLXDC1          FALSE            starF,arriba     <NA>          
    ##  2 A549|HERC2P3--RP11-603B24.1 FALSE            starF            <NA>          
    ##  3 A549|LRRN2--PLEKHA6         FALSE            arriba           <NA>          
    ##  4 A549|MTAP--RP11-408N14.1    FALSE            arriba           <NA>          
    ##  5 A549|RP11-69H14.6--ZNF43    FALSE            arriba           <NA>          
    ##  6 A549|SCAMP2--WDR72          TRUE             starF,arriba     <NA>          
    ##  7 K562|ABL1--BCR              TRUE             starF,arriba     starF,arriba  
    ##  8 K562|ALDOC--PHF12           FALSE            arriba           <NA>          
    ##  9 K562|BAG6--SLC44A4          FALSE            starF,arriba     starF,arriba  
    ## 10 K562|C16orf87--ORC6         FALSE            starF,arriba     starF,arriba  
    ## # ℹ 69 more rows
…
``` r
trusted_fusions_found = read_support_sample %>%
    filter(as_truth) %>%
    select(prog, proxy_fusion_name, validated_fusion, matched_illumina, other_illumina)  %>%
    unique() %>%
    group_by(proxy_fusion_name, validated_fusion, matched_illumina, other_illumina) %>%
    arrange(prog) %>%
    mutate(progs = paste(collapse=",", prog)) %>%
    select(proxy_fusion_name, validated_fusion, matched_illumina, other_illumina, progs) %>% unique() 
    
trusted_fusions_found
```

    ## # A tibble: 79 × 5
    ## # Groups:   proxy_fusion_name, validated_fusion, matched_illumina,
    ## #   other_illumina [79]
    ##    proxy_fusion_name     validated_fusion matched_illumina other_illumina progs 
    ##    <chr>                 <lgl>            <chr>            <chr>          <chr> 
    ##  1 MCF7|BCAS3--BCAS4     TRUE             starF,arriba     <NA>           JAFFA…
    ##  2 MCF7|AC099850.1--VMP1 TRUE             starF,arriba     <NA>           JAFFA…
    ##  3 MCF7|ARFGEF2--SULF2   TRUE             starF,arriba     <NA>           JAFFA…
    ##  4 MCF7|NBPF6--SLC25A24  TRUE             starF,arriba     <NA>           JAFFA…
    ##  5 MCF7|PICALM--SYTL2    TRUE             starF,arriba     <NA>           JAFFA…
    ##  6 MCF7|AHCYL1--RAD51C   TRUE             starF,arriba     <NA>           JAFFA…
    ##  7 MCF7|CA4--TANC2       FALSE            starF,arriba     <NA>           JAFFA…
    ##  8 MCF7|DIAPH3--RPS6KB1  TRUE             <NA>             <NA>           JAFFA…
    ##  9 MCF7|ATP1A1--ZFP64    TRUE             starF            <NA>           JAFFA…
    ## 10 MCF7|AP4B1-AS1--RSBN1 TRUE             starF,arriba     <NA>           JAFFA…
    ## # ℹ 69 more rows

``` r
write.table(trusted_fusions_found, file='trusted_fusions_found.tsv', quote=F, sep="\t", row.names=F)
```

``` r
read_support_sample_scored %>% filter(prog == "ctat-LR-fusion") %>%
    filter(runtype == "regular") %>%
    filter(! as_truth) %>% 
    select(proxy_fusion_name, fusion, num_reads)
```

    ## # A tibble: 36 × 3
    ##    proxy_fusion_name               fusion                     num_reads
    ##    <chr>                           <chr>                          <int>
    ##  1 K562|RP11-208G20.2--PSPHP1      RP11-208G20.2--PSPHP1             36
    ##  2 K562|RPLP2--EFCAB3              RPLP2--RP11-51L5.2                27
    ##  3 MCF7|AP001347.6--ANKRD20A11P    AP001347.6--ANKRD20A11P           13
    ##  4 MCF7|RBM6--BCAR1                RBM6--BCAR1                       11
    ##  5 MCF7|CH17-264B6.3--UPK3B        UPK3B--CH17-264B6.3               10
    ##  6 A549|AC026803.1--FTLP2          AC026803.1--FTLP2                  7
    ##  7 K562|RP11-6N13.1--CTD-2374C24.1 RP11-6N13.1--CTD-2374C24.1         7
    ##  8 MCF7|AL512640.1--ASB7           ASB7--AL512640.1                   7
    ##  9 A549|ANTXR2--KPNA2              ANTXR2--KPNA2                      6
    ## 10 A549|LINC00152--ANAPC1          LINC00152--ANAPC1                  6
    ## # ℹ 26 more rows
…
