…
``` r
FN_preds %>% select(proxy_fusion_name, prog) %>% 
    unique() %>% group_by(proxy_fusion_name) %>% 
    mutate(progs = paste(prog, collapse=","), num_progs = n() ) %>%
    select(proxy_fusion_name, progs, num_progs) %>% unique() %>%
    arrange(desc(num_progs))
```

    ## # A tibble: 22 × 3
    ## # Groups:   proxy_fusion_name [22]
    ##    proxy_fusion_name              progs                                num_progs
    ##    <chr>                          <chr>                                    <int>
    ##  1 HCC1395|MLLT10--AMD1P1         fusionseeker,LongGF,JAFFAL,ctat-LR-…         4
    ##  2 SKBR3|CPNE1--PREX1             pbfusion,LongGF,JAFFAL,ctat-LR-fusi…         4
    ##  3 K562|RP11-307P5.1--SASH1       fusionseeker,LongGF,JAFFAL                   3
    ##  4 HCC1395|CH507-528H12.1--PDIA5  LongGF,JAFFAL,ctat-LR-fusion                 3
    ##  5 HCC1187|B3GNTL1P2--CD2AP       LongGF,JAFFAL,ctat-LR-fusion                 3
    ##  6 HCC1395|UNC5C--RP11-681L8.1    fusionseeker,LongGF                          2
    ##  7 SKBR3|TRIO--FBXL7              pbfusion,LongGF                              2
    ##  8 DMS53|KRT7--OR7E47P            LongGF,JAFFAL                                2
    ##  9 DMS53|KIAA0232--CH507-528H12.1 LongGF,ctat-LR-fusion                        2
    ## 10 VCAP|ABCB9--ZDHHC7             pbfusion                                     1
    ## # ℹ 12 more rows
…
