…
``` r
validated_fusions_found_by_progs = data %>% filter(validated_fusion) %>% select(proxy_fusion_name, prog) %>% unique() %>% 
    group_by(proxy_fusion_name) %>% arrange(prog) %>% mutate(progs = paste(prog, collapse=',') ) %>%
    select(proxy_fusion_name, progs) %>% unique()

validated_fusions_found_by_progs
```

    ## # A tibble: 29 × 2
    ## # Groups:   proxy_fusion_name [29]
    ##    proxy_fusion_name      progs                                             
    ##    <chr>                  <chr>                                             
    ##  1 MCF7|BCAS3--BCAS4      ctat-LR-fusion,JAFFAL,LongGF,fusionseeker,pbfusion
    ##  2 MCF7|AC099850.1--VMP1  ctat-LR-fusion,JAFFAL,fusionseeker,pbfusion       
    ##  3 MCF7|ARFGEF2--SULF2    ctat-LR-fusion,JAFFAL,LongGF,fusionseeker,pbfusion
    ##  4 MCF7|NBPF6--SLC25A24   ctat-LR-fusion,JAFFAL,LongGF,fusionseeker,pbfusion
    ##  5 MCF7|PICALM--SYTL2     ctat-LR-fusion,JAFFAL,LongGF,fusionseeker,pbfusion
    ##  6 MCF7|ATP1A1--ZFP64     ctat-LR-fusion,JAFFAL,LongGF,fusionseeker,pbfusion
    ##  7 MCF7|AHCYL1--RAD51C    ctat-LR-fusion,JAFFAL,LongGF,fusionseeker,pbfusion
    ##  8 MCF7|AP4B1-AS1--RSBN1  ctat-LR-fusion,JAFFAL,fusionseeker,pbfusion       
    ##  9 K562|NUP214--XKR3      ctat-LR-fusion,JAFFAL,LongGF,fusionseeker,pbfusion
    ## 10 MCF7|ATXN7L3--FAM171A2 ctat-LR-fusion,JAFFAL,LongGF,fusionseeker         
    ## # ℹ 19 more rows
…
