…
``` r
validated_fusions_found_by_progs = data %>% filter(validated_fusion) %>% select(proxy_fusion_name, prog) %>% unique() %>% 
    group_by(proxy_fusion_name) %>% arrange(prog) %>% mutate(progs = paste(prog, collapse=',') ) %>%
    select(proxy_fusion_name, progs) %>% unique()

validated_fusions_found_by_progs
```

    ## # A tibble: 29 × 2
    ## # Groups:   proxy_fusion_name [29]
    ##    proxy_fusion_name     progs                                             
    ##    <chr>                 <chr>                                             
    ##  1 MCF7|BCAS3--BCAS4     JAFFAL,LongGF,ctat-LR-fusion,fusionseeker,pbfusion
    ##  2 MCF7|AC099850.1--VMP1 JAFFAL,ctat-LR-fusion,fusionseeker,pbfusion       
    ##  3 MCF7|ARFGEF2--SULF2   JAFFAL,LongGF,ctat-LR-fusion,fusionseeker,pbfusion
    ##  4 MCF7|NBPF6--SLC25A24  JAFFAL,LongGF,ctat-LR-fusion,fusionseeker,pbfusion
    ##  5 MCF7|PICALM--SYTL2    JAFFAL,LongGF,ctat-LR-fusion,fusionseeker,pbfusion
    ##  6 MCF7|AHCYL1--RAD51C   JAFFAL,LongGF,ctat-LR-fusion,fusionseeker,pbfusion
    ##  7 MCF7|DIAPH3--RPS6KB1  JAFFAL,LongGF,ctat-LR-fusion,fusionseeker         
    ##  8 MCF7|ATP1A1--ZFP64    JAFFAL,LongGF,ctat-LR-fusion,fusionseeker,pbfusion
    ##  9 MCF7|AP4B1-AS1--RSBN1 JAFFAL,ctat-LR-fusion,fusionseeker,pbfusion       
    ## 10 MCF7|BCAS4--ZMYND8    JAFFAL,LongGF,ctat-LR-fusion,fusionseeker,pbfusion
    ## # ℹ 19 more rows
…
